{
  "names": {
    "_": "79c2cae114ea28a981e7559b4fe7854a473521a8d22a66bbab9fa248eb820ff6",
    "alex": "79c2cae114ea28a981e7559b4fe7854a473521a8d22a66bbab9fa248eb820ff6",
    "lunk": "0461fcbecc4c3374439932d6b8f11269ccdb7cc973ad7a50ae362db135a474dd"
  },
  "relays": {
    "79c2cae114ea28a981e7559b4fe7854a473521a8d22a66bbab9fa248eb820ff6": [
      "wss://relay.mostr.pub"
    ]
  }
}
